%!PS-Adobe-2.0 EPSF-2.0
%%Title: /home/ivaughn/underway-ctd-system.dia
%%Creator: Dia v0.97.2
%%CreationDate: Fri Apr 15 16:31:46 2016
%%For: ivaughn
%%Orientation: Portrait
%%Magnification: 1.0000
%%BoundingBox: 0 0 893 429
%%BeginSetup
%%EndSetup
%%EndComments
%%BeginProlog
[ /.notdef /.notdef /.notdef /.notdef /.notdef /.notdef /.notdef /.notdef /.notdef /.notdef
/.notdef /.notdef /.notdef /.notdef /.notdef /.notdef /.notdef /.notdef /.notdef /.notdef
/.notdef /.notdef /.notdef /.notdef /.notdef /.notdef /.notdef /.notdef /.notdef /.notdef
/.notdef /.notdef /space /exclam /quotedbl /numbersign /dollar /percent /ampersand /quoteright
/parenleft /parenright /asterisk /plus /comma /hyphen /period /slash /zero /one
/two /three /four /five /six /seven /eight /nine /colon /semicolon
/less /equal /greater /question /at /A /B /C /D /E
/F /G /H /I /J /K /L /M /N /O
/P /Q /R /S /T /U /V /W /X /Y
/Z /bracketleft /backslash /bracketright /asciicircum /underscore /quoteleft /a /b /c
/d /e /f /g /h /i /j /k /l /m
/n /o /p /q /r /s /t /u /v /w
/x /y /z /braceleft /bar /braceright /asciitilde /.notdef /.notdef /.notdef
/.notdef /.notdef /.notdef /.notdef /.notdef /.notdef /.notdef /.notdef /.notdef /.notdef
/.notdef /.notdef /.notdef /.notdef /.notdef /.notdef /.notdef /.notdef /.notdef /.notdef
/.notdef /.notdef /.notdef /.notdef /.notdef /.notdef /.notdef /.notdef /.notdef /.notdef
/space /exclamdown /cent /sterling /currency /yen /brokenbar /section /dieresis /copyright
/ordfeminine /guillemotleft /logicalnot /hyphen /registered /macron /degree /plusminus /twosuperior /threesuperior
/acute /mu /paragraph /periodcentered /cedilla /onesuperior /ordmasculine /guillemotright /onequarter /onehalf
/threequarters /questiondown /Agrave /Aacute /Acircumflex /Atilde /Adieresis /Aring /AE /Ccedilla
/Egrave /Eacute /Ecircumflex /Edieresis /Igrave /Iacute /Icircumflex /Idieresis /Eth /Ntilde
/Ograve /Oacute /Ocircumflex /Otilde /Odieresis /multiply /Oslash /Ugrave /Uacute /Ucircumflex
/Udieresis /Yacute /Thorn /germandbls /agrave /aacute /acircumflex /atilde /adieresis /aring
/ae /ccedilla /egrave /eacute /ecircumflex /edieresis /igrave /iacute /icircumflex /idieresis
/eth /ntilde /ograve /oacute /ocircumflex /otilde /odieresis /divide /oslash /ugrave
/uacute /ucircumflex /udieresis /yacute /thorn /ydieresis] /isolatin1encoding exch def
/cp {closepath} bind def
/c {curveto} bind def
/f {fill} bind def
/a {arc} bind def
/ef {eofill} bind def
/ex {exch} bind def
/gr {grestore} bind def
/gs {gsave} bind def
/sa {save} bind def
/rs {restore} bind def
/l {lineto} bind def
/m {moveto} bind def
/rm {rmoveto} bind def
/n {newpath} bind def
/s {stroke} bind def
/sh {show} bind def
/slc {setlinecap} bind def
/slj {setlinejoin} bind def
/slw {setlinewidth} bind def
/srgb {setrgbcolor} bind def
/rot {rotate} bind def
/sc {scale} bind def
/sd {setdash} bind def
/ff {findfont} bind def
/sf {setfont} bind def
/scf {scalefont} bind def
/sw {stringwidth pop} bind def
/tr {translate} bind def

/ellipsedict 8 dict def
ellipsedict /mtrx matrix put
/ellipse
{ ellipsedict begin
   /endangle exch def
   /startangle exch def
   /yrad exch def
   /xrad exch def
   /y exch def
   /x exch def   /savematrix mtrx currentmatrix def
   x y tr xrad yrad sc
   0 0 1 startangle endangle arc
   savematrix setmatrix
   end
} def

/mergeprocs {
dup length
3 -1 roll
dup
length
dup
5 1 roll
3 -1 roll
add
array cvx
dup
3 -1 roll
0 exch
putinterval
dup
4 2 roll
putinterval
} bind def
/Times-Roman-latin1
    /Times-Roman findfont
    dup length dict begin
	{1 index /FID ne {def} {pop pop} ifelse} forall
	/Encoding isolatin1encoding def
    currentdict end
definefont pop
/Times-Italic-latin1
    /Times-Italic findfont
    dup length dict begin
	{1 index /FID ne {def} {pop pop} ifelse} forall
	/Encoding isolatin1encoding def
    currentdict end
definefont pop
/Times-Bold-latin1
    /Times-Bold findfont
    dup length dict begin
	{1 index /FID ne {def} {pop pop} ifelse} forall
	/Encoding isolatin1encoding def
    currentdict end
definefont pop
/Times-BoldItalic-latin1
    /Times-BoldItalic findfont
    dup length dict begin
	{1 index /FID ne {def} {pop pop} ifelse} forall
	/Encoding isolatin1encoding def
    currentdict end
definefont pop
/AvantGarde-Gothic-latin1
    /AvantGarde-Gothic findfont
    dup length dict begin
	{1 index /FID ne {def} {pop pop} ifelse} forall
	/Encoding isolatin1encoding def
    currentdict end
definefont pop
/AvantGarde-BookOblique-latin1
    /AvantGarde-BookOblique findfont
    dup length dict begin
	{1 index /FID ne {def} {pop pop} ifelse} forall
	/Encoding isolatin1encoding def
    currentdict end
definefont pop
/AvantGarde-Demi-latin1
    /AvantGarde-Demi findfont
    dup length dict begin
	{1 index /FID ne {def} {pop pop} ifelse} forall
	/Encoding isolatin1encoding def
    currentdict end
definefont pop
/AvantGarde-DemiOblique-latin1
    /AvantGarde-DemiOblique findfont
    dup length dict begin
	{1 index /FID ne {def} {pop pop} ifelse} forall
	/Encoding isolatin1encoding def
    currentdict end
definefont pop
/Bookman-Light-latin1
    /Bookman-Light findfont
    dup length dict begin
	{1 index /FID ne {def} {pop pop} ifelse} forall
	/Encoding isolatin1encoding def
    currentdict end
definefont pop
/Bookman-LightItalic-latin1
    /Bookman-LightItalic findfont
    dup length dict begin
	{1 index /FID ne {def} {pop pop} ifelse} forall
	/Encoding isolatin1encoding def
    currentdict end
definefont pop
/Bookman-Demi-latin1
    /Bookman-Demi findfont
    dup length dict begin
	{1 index /FID ne {def} {pop pop} ifelse} forall
	/Encoding isolatin1encoding def
    currentdict end
definefont pop
/Bookman-DemiItalic-latin1
    /Bookman-DemiItalic findfont
    dup length dict begin
	{1 index /FID ne {def} {pop pop} ifelse} forall
	/Encoding isolatin1encoding def
    currentdict end
definefont pop
/Courier-latin1
    /Courier findfont
    dup length dict begin
	{1 index /FID ne {def} {pop pop} ifelse} forall
	/Encoding isolatin1encoding def
    currentdict end
definefont pop
/Courier-Oblique-latin1
    /Courier-Oblique findfont
    dup length dict begin
	{1 index /FID ne {def} {pop pop} ifelse} forall
	/Encoding isolatin1encoding def
    currentdict end
definefont pop
/Courier-Bold-latin1
    /Courier-Bold findfont
    dup length dict begin
	{1 index /FID ne {def} {pop pop} ifelse} forall
	/Encoding isolatin1encoding def
    currentdict end
definefont pop
/Courier-BoldOblique-latin1
    /Courier-BoldOblique findfont
    dup length dict begin
	{1 index /FID ne {def} {pop pop} ifelse} forall
	/Encoding isolatin1encoding def
    currentdict end
definefont pop
/Helvetica-latin1
    /Helvetica findfont
    dup length dict begin
	{1 index /FID ne {def} {pop pop} ifelse} forall
	/Encoding isolatin1encoding def
    currentdict end
definefont pop
/Helvetica-Oblique-latin1
    /Helvetica-Oblique findfont
    dup length dict begin
	{1 index /FID ne {def} {pop pop} ifelse} forall
	/Encoding isolatin1encoding def
    currentdict end
definefont pop
/Helvetica-Bold-latin1
    /Helvetica-Bold findfont
    dup length dict begin
	{1 index /FID ne {def} {pop pop} ifelse} forall
	/Encoding isolatin1encoding def
    currentdict end
definefont pop
/Helvetica-BoldOblique-latin1
    /Helvetica-BoldOblique findfont
    dup length dict begin
	{1 index /FID ne {def} {pop pop} ifelse} forall
	/Encoding isolatin1encoding def
    currentdict end
definefont pop
/Helvetica-Narrow-latin1
    /Helvetica-Narrow findfont
    dup length dict begin
	{1 index /FID ne {def} {pop pop} ifelse} forall
	/Encoding isolatin1encoding def
    currentdict end
definefont pop
/Helvetica-Narrow-Oblique-latin1
    /Helvetica-Narrow-Oblique findfont
    dup length dict begin
	{1 index /FID ne {def} {pop pop} ifelse} forall
	/Encoding isolatin1encoding def
    currentdict end
definefont pop
/Helvetica-Narrow-Bold-latin1
    /Helvetica-Narrow-Bold findfont
    dup length dict begin
	{1 index /FID ne {def} {pop pop} ifelse} forall
	/Encoding isolatin1encoding def
    currentdict end
definefont pop
/Helvetica-Narrow-BoldOblique-latin1
    /Helvetica-Narrow-BoldOblique findfont
    dup length dict begin
	{1 index /FID ne {def} {pop pop} ifelse} forall
	/Encoding isolatin1encoding def
    currentdict end
definefont pop
/NewCenturySchlbk-Roman-latin1
    /NewCenturySchlbk-Roman findfont
    dup length dict begin
	{1 index /FID ne {def} {pop pop} ifelse} forall
	/Encoding isolatin1encoding def
    currentdict end
definefont pop
/NewCenturySchlbk-Italic-latin1
    /NewCenturySchlbk-Italic findfont
    dup length dict begin
	{1 index /FID ne {def} {pop pop} ifelse} forall
	/Encoding isolatin1encoding def
    currentdict end
definefont pop
/NewCenturySchlbk-Bold-latin1
    /NewCenturySchlbk-Bold findfont
    dup length dict begin
	{1 index /FID ne {def} {pop pop} ifelse} forall
	/Encoding isolatin1encoding def
    currentdict end
definefont pop
/NewCenturySchlbk-BoldItalic-latin1
    /NewCenturySchlbk-BoldItalic findfont
    dup length dict begin
	{1 index /FID ne {def} {pop pop} ifelse} forall
	/Encoding isolatin1encoding def
    currentdict end
definefont pop
/Palatino-Roman-latin1
    /Palatino-Roman findfont
    dup length dict begin
	{1 index /FID ne {def} {pop pop} ifelse} forall
	/Encoding isolatin1encoding def
    currentdict end
definefont pop
/Palatino-Italic-latin1
    /Palatino-Italic findfont
    dup length dict begin
	{1 index /FID ne {def} {pop pop} ifelse} forall
	/Encoding isolatin1encoding def
    currentdict end
definefont pop
/Palatino-Bold-latin1
    /Palatino-Bold findfont
    dup length dict begin
	{1 index /FID ne {def} {pop pop} ifelse} forall
	/Encoding isolatin1encoding def
    currentdict end
definefont pop
/Palatino-BoldItalic-latin1
    /Palatino-BoldItalic findfont
    dup length dict begin
	{1 index /FID ne {def} {pop pop} ifelse} forall
	/Encoding isolatin1encoding def
    currentdict end
definefont pop
/Symbol-latin1
    /Symbol findfont
definefont pop
/ZapfChancery-MediumItalic-latin1
    /ZapfChancery-MediumItalic findfont
    dup length dict begin
	{1 index /FID ne {def} {pop pop} ifelse} forall
	/Encoding isolatin1encoding def
    currentdict end
definefont pop
/ZapfDingbats-latin1
    /ZapfDingbats findfont
    dup length dict begin
	{1 index /FID ne {def} {pop pop} ifelse} forall
	/Encoding isolatin1encoding def
    currentdict end
definefont pop
28.346000 -28.346000 scale
-15.950000 -23.050000 translate
%%EndProlog


1.000000 1.000000 1.000000 srgb
n 25.000000 15.000000 m 25.000000 18.000000 l 30.000000 18.000000 l 30.000000 15.000000 l f
0.100000 slw
[] 0 sd
[] 0 sd
0 slj
0.000000 0.000000 0.000000 srgb
n 25.000000 15.000000 m 25.000000 18.000000 l 30.000000 18.000000 l 30.000000 15.000000 l cp s
/Helvetica-latin1 ff 0.560000 scf sf
(Sync GUI) dup sw 2 div 27.500000 ex sub 16.095000 m
 gs 1 -1 sc sh gr
(\(wetpi\)) dup sw 2 div 27.500000 ex sub 16.895000 m
 gs 1 -1 sc sh gr
1.000000 1.000000 1.000000 srgb
n 16.000000 15.000000 m 16.000000 18.000000 l 21.000000 18.000000 l 21.000000 15.000000 l f
0.100000 slw
[] 0 sd
[] 0 sd
0 slj
0.000000 0.000000 0.000000 srgb
n 16.000000 15.000000 m 16.000000 18.000000 l 21.000000 18.000000 l 21.000000 15.000000 l cp s
(U-CTD) dup sw 2 div 18.500000 ex sub 16.095000 m
 gs 1 -1 sc sh gr
(Probe) dup sw 2 div 18.500000 ex sub 16.895000 m
 gs 1 -1 sc sh gr
1.000000 1.000000 1.000000 srgb
n 33.000000 20.000000 m 33.000000 23.000000 l 38.000000 23.000000 l 38.000000 20.000000 l f
0.100000 slw
[] 0 sd
[] 0 sd
0 slj
0.000000 0.000000 0.000000 srgb
n 33.000000 20.000000 m 33.000000 23.000000 l 38.000000 23.000000 l 38.000000 20.000000 l cp s
(navServe) dup sw 2 div 35.500000 ex sub 21.095000 m
 gs 1 -1 sc sh gr
(\(capture\)) dup sw 2 div 35.500000 ex sub 21.895000 m
 gs 1 -1 sc sh gr
1.000000 1.000000 1.000000 srgb
n 29.000000 8.000000 m 29.000000 11.000000 l 35.000000 11.000000 l 35.000000 8.000000 l f
0.100000 slw
[] 0 sd
[] 0 sd
0 slj
0.000000 0.000000 0.000000 srgb
n 29.000000 8.000000 m 29.000000 11.000000 l 35.000000 11.000000 l 35.000000 8.000000 l cp s
(SVPEditor) dup sw 2 div 32.000000 ex sub 9.095000 m
 gs 1 -1 sc sh gr
(\(subbottom\)) dup sw 2 div 32.000000 ex sub 9.895000 m
 gs 1 -1 sc sh gr
1.000000 1.000000 1.000000 srgb
n 36.700000 14.200000 m 36.700000 17.200000 l 42.700000 17.200000 l 42.700000 14.200000 l f
0.100000 slw
[] 0 sd
[] 0 sd
0 slj
0.000000 0.000000 0.000000 srgb
n 36.700000 14.200000 m 36.700000 17.200000 l 42.700000 17.200000 l 42.700000 14.200000 l cp s
(Aggregator) dup sw 2 div 39.700000 ex sub 15.295000 m
 gs 1 -1 sc sh gr
(\(nautilusfs\)) dup sw 2 div 39.700000 ex sub 16.095000 m
 gs 1 -1 sc sh gr
0.100000 slw
[] 0 sd
[] 0 sd
0 slc
n 27.500000 15.000000 m 31.636159 11.323415 l s
[] 0 sd
0 slj
0 slc
n 31.916437 11.074278 m 31.708823 11.593312 l 31.636159 11.323415 l 31.376641 11.219608 l ef
n 31.916437 11.074278 m 31.708823 11.593312 l 31.636159 11.323415 l 31.376641 11.219608 l cp s
0.100000 slw
[] 0 sd
[] 0 sd
0 slc
n 30.000000 15.750000 m 36.213210 15.703633 l s
[] 0 sd
0 slj
0 slc
n 36.588200 15.700834 m 36.090079 15.954559 l 36.213210 15.703633 l 36.086348 15.454573 l ef
n 36.588200 15.700834 m 36.090079 15.954559 l 36.213210 15.703633 l 36.086348 15.454573 l cp s
0.100000 slw
[] 0 sd
[] 0 sd
0 slc
n 33.000000 21.500000 m 30.316807 18.369609 l s
[] 0 sd
0 slj
0 slc
n 30.072761 18.084887 m 30.587971 18.301818 l 30.316807 18.369609 l 30.208342 18.627214 l ef
n 30.072761 18.084887 m 30.587971 18.301818 l 30.316807 18.369609 l 30.208342 18.627214 l cp s
0.100000 slw
[0.200000] 0 sd
[0.200000] 0 sd
0 slc
0.000000 0.000000 1.000000 srgb
n 21.049377 16.500000 m 24.513197 16.500000 l s
[] 0 sd
0 slj
0 slc
n 24.888197 16.500000 m 24.388197 16.750000 l 24.513197 16.500000 l 24.388197 16.250000 l ef
n 24.888197 16.500000 m 24.388197 16.750000 l 24.513197 16.500000 l 24.388197 16.250000 l cp s
0.000000 0.000000 0.000000 srgb
(Bluetooth) 21.350000 17.100000 m
 gs 1 -1 sc sh gr
(Cast) 29.000000 19.800000 m
 gs 1 -1 sc sh gr
(Location) 29.000000 20.600000 m
 gs 1 -1 sc sh gr
(Raw / Processed) 31.050000 16.450000 m
 gs 1 -1 sc sh gr
(Casts) 31.050000 17.250000 m
 gs 1 -1 sc sh gr
(Processed Casts) 24.700000 12.150000 m
 gs 1 -1 sc sh gr
(\(via samba\)) 24.700000 12.950000 m
 gs 1 -1 sc sh gr
(To MultiBeam) 35.650000 10.350000 m
 gs 1 -1 sc sh gr
0.100000 slw
[] 0 sd
[] 0 sd
0 slc
n 35.049637 9.519424 m 39.363206 9.546899 l s
[] 0 sd
0 slj
0 slc
n 39.738199 9.549288 m 39.236617 9.796098 l 39.363206 9.546899 l 39.239801 9.296108 l ef
n 39.738199 9.549288 m 39.236617 9.796098 l 39.363206 9.546899 l 39.239801 9.296108 l cp s
0.100000 slw
[] 0 sd
[] 0 sd
0 slc
n 42.700000 15.700000 m 46.413197 15.700000 l s
[] 0 sd
0 slj
0 slc
n 46.788197 15.700000 m 46.288197 15.950000 l 46.413197 15.700000 l 46.288197 15.450000 l ef
n 46.788197 15.700000 m 46.288197 15.950000 l 46.413197 15.700000 l 46.288197 15.450000 l cp s
(To Cruise) 43.280000 16.707500 m
 gs 1 -1 sc sh gr
(Data Archive) 43.280000 17.507500 m
 gs 1 -1 sc sh gr
showpage
